…
## convert

The most useful function of `hablar` is maybe convert. convert helps the
user to quickly and dynamically change data type of columns in a data
frame. convert always converts factors to character before further
conversion. Works with `tidyselect`.

``` r
mtcars %>% 
  convert(int(cyl, am),
          fct(disp:drat),
          chr(contains("w")))
```

    #> # A tibble: 32 x 11
    #>     mpg   cyl disp  hp    drat  wt     qsec    vs    am  gear  carb
    #>   <dbl> <int> <fct> <fct> <fct> <chr> <dbl> <dbl> <int> <dbl> <dbl>
    #> 1  21       6 160   110   3.9   2.62   16.5     0     1     4     4
    #> 2  21       6 160   110   3.9   2.875  17.0     0     1     4     4
    #> 3  22.8     4 108   93    3.85  2.32   18.6     1     1     4     1
    #> 4  21.4     6 258   110   3.08  3.215  19.4     1     0     3     1
    #> # … with 28 more rows
…
``` r
# Create df with duplicates
df <- mtcars %>% 
  bind_rows(mtcars %>% slice(1, 5, 9))

# Return rows with duplicates in cyl and am
df %>% 
  find_duplicates(cyl, am)
```

    #> # A tibble: 35 x 11
    #>     mpg   cyl  disp    hp  drat    wt  qsec    vs    am  gear  carb
    #>   <dbl> <dbl> <dbl> <dbl> <dbl> <dbl> <dbl> <dbl> <dbl> <dbl> <dbl>
    #> 1  21       6   160   110  3.9   2.62  16.5     0     1     4     4
    #> 2  21       6   160   110  3.9   2.88  17.0     0     1     4     4
    #> 3  22.8     4   108    93  3.85  2.32  18.6     1     1     4     1
    #> 4  21.4     6   258   110  3.08  3.22  19.4     1     0     3     1
    #> # … with 31 more rows

There are also find functions for other cases. For example `find_na()`
returns rows with missing values.

``` r
starwars %>% 
  find_na(height)
```

    #> # A tibble: 6 x 13
    #>   name  height  mass hair_color skin_color eye_color birth_year gender
    #>   <chr>  <int> <dbl> <chr>      <chr>      <chr>          <dbl> <chr> 
    #> 1 Arve…     NA    NA brown      fair       brown             NA male  
    #> 2 Finn      NA    NA black      dark       dark              NA male  
    #> 3 Rey       NA    NA brown      light      hazel             NA female
    #> 4 Poe …     NA    NA brown      light      brown             NA male  
    #> # … with 2 more rows, and 5 more variables: homeworld <chr>,
    #> #   species <chr>, films <list>, vehicles <list>, starships <list>
…
##### **…apply the solution**

Let’s say that we have found a problem is caused by missing values in
the column `height` and you want to replace all missing values with the
integer 100. `hablar` comes with an additional ways of doing if-or-else.

``` r
starwars %>% 
  find_na(height) %>% 
  mutate(height = if_na(height, 100L))
```

    #> # A tibble: 6 x 13
    #>   name  height  mass hair_color skin_color eye_color birth_year gender
    #>   <chr>  <int> <dbl> <chr>      <chr>      <chr>          <dbl> <chr> 
    #> 1 Arve…    100    NA brown      fair       brown             NA male  
    #> 2 Finn     100    NA black      dark       dark              NA male  
    #> 3 Rey      100    NA brown      light      hazel             NA female
    #> 4 Poe …    100    NA brown      light      brown             NA male  
    #> # … with 2 more rows, and 5 more variables: homeworld <chr>,
    #> #   species <chr>, films <list>, vehicles <list>, starships <list>
…
which works in the same way as the examples above.

## retype

A function for quick and dirty data type conversion. All columns are
evaluated and converted to the simplest possible without loosing any
information.

``` r
mtcars %>% retype()
```

    #> # A tibble: 32 x 11
    #>     mpg   cyl  disp    hp  drat    wt  qsec    vs    am  gear  carb
    #>   <dbl> <int> <dbl> <int> <dbl> <dbl> <dbl> <int> <int> <int> <int>
    #> 1  21       6   160   110  3.9   2.62  16.5     0     1     4     4
    #> 2  21       6   160   110  3.9   2.88  17.0     0     1     4     4
    #> 3  22.8     4   108    93  3.85  2.32  18.6     1     1     4     1
    #> 4  21.4     6   258   110  3.08  3.22  19.4     1     0     3     1
    #> # … with 28 more rows
…
