s - short and simple summarizing
…
Generally, R is strict about missing values so that you do not miss them, which often is helpful rather than harsh! However, often the programmer want R to return a ‘real’ value from the data, if there is one, even if it ignores missing values.

The s function helps you with this. Since it by default removes missing values you can simply enter:

x <- c(1, 2, 3, NA, 4)
mean(s(x))

#> [1] 2.5

Sometimes R removes too much

Adding an argument to remove all missing is common practise when summarizing data. However, it is not uncommon that some vectors only have missing values. Imagine an example where Amanda, David and Viktor sold sodas by the beach for three days. If someone did not show up they get a missing value.

#> # A tibble: 9 x 3
#>     day name   sold_sodas
#>   <dbl> <chr>       <dbl>
#> 1     1 Amanda          3
#> 2     2 Amanda         NA
#> 3     3 Amanda          8
#> 4     1 David          NA
#> # ... with 5 more rows
…
#> # A tibble: 3 x 2
#>   name   n_sodas_best_day
#>   <chr>             <dbl>
#> 1 Amanda                8
#> 2 David                NA
#> 3 Viktor                4

Getting answers when there is none

Another astonishing result one might encounter occurs when R tries to return a value when there is none. Take this extract df from the starwars dataset from the R package dplyr.

df %>% head(10)

#> # A tibble: 10 x 4
#>   name           homeworld species height
#>   <chr>          <chr>     <chr>    <int>
#> 1 Luke Skywalker Tatooine  Human      172
#> 2 C-3PO          Tatooine  Droid      167
#> 3 R2-D2          Naboo     Droid       96
#> 4 Darth Vader    Tatooine  Human      202
#> # ... with 6 more rows

Say that we want to calculate find the height of the tallest human from each homeworld. For precautionary reasons, we drop all rows with missing values from the height column so that we do not get the same problem as before.

df %>% 
  filter(!is.na(height)) %>% 
  group_by(homeworld) %>% 
  summarize(tallest_human = max(height[species == "Human"]))

#> # A tibble: 49 x 2
#>   homeworld   tallest_human
#>   <chr>               <dbl>
#> 1 Alderaan              191
#> 2 Aleen Minor          -Inf
#> 3 Bespin                175
#> 4 Bestine IV            180
#> # ... with 45 more rows

We got negative infinity -Inf again. How could this be?

This is because some homeworld have no humans, e.g. Cerea. R tries to calculate the maximum value of nothing. The s function can help you out! Since it returns NA if the vector is empty we get:

df %>% 
  filter(!is.na(height)) %>% 
  group_by(homeworld) %>% 
  summarize(tallest_human = max(s(height[species == "Human"])))

#> # A tibble: 49 x 2
#>   homeworld   tallest_human
#>   <chr>               <int>
#> 1 Alderaan              191
#> 2 Aleen Minor            NA
#> 3 Bespin                175
#> 4 Bestine IV            180
#> # ... with 45 more rows
…
